// Jest Snapshot v1, https://goo.gl/fbAQLP

exports[`AlbumsList renders correctly 1`] = `
ShallowWrapper {
  Symbol(enzyme.__root__): [Circular],
  Symbol(enzyme.__unrendered__): <AlbumsList
    albums={
      Array [
        Object {
          "artists": Array [
            Object {
              "name": "Bono Vox",
            },
          ],
          "images": Array [
            Object {
              "url": "http://teste.com.br/foto.png",
            },
          ],
          "name": "U2",
        },
        Object {
          "artists": Array [
            Object {
              "name": "Bono Vox",
            },
          ],
          "images": Array [
            Object {
              "url": "http://teste.com.br/foto.png",
            },
          ],
          "name": "U2",
        },
        Object {
          "artists": Array [
            Object {
              "name": "Bono Vox",
            },
          ],
          "images": Array [
            Object {
              "url": "http://teste.com.br/foto.png",
            },
          ],
          "name": "U2",
        },
      ]
    }
  />,
  Symbol(enzyme.__renderer__): Object {
    "batchedUpdates": [Function],
    "getNode": [Function],
    "render": [Function],
    "simulateError": [Function],
    "simulateEvent": [Function],
    "unmount": [Function],
  },
  Symbol(enzyme.__node__): Object {
    "instance": null,
    "key": undefined,
    "nodeType": "host",
    "props": Object {
      "children": <div
        className="albumList"
      >
        <LoadableAlbumsListItem
          album={
            Object {
              "artists": Array [
                Object {
                  "name": "Bono Vox",
                },
              ],
              "images": Array [
                Object {
                  "url": "http://teste.com.br/foto.png",
                },
              ],
              "name": "U2",
            }
          }
        />
        <LoadableAlbumsListItem
          album={
            Object {
              "artists": Array [
                Object {
                  "name": "Bono Vox",
                },
              ],
              "images": Array [
                Object {
                  "url": "http://teste.com.br/foto.png",
                },
              ],
              "name": "U2",
            }
          }
        />
        <LoadableAlbumsListItem
          album={
            Object {
              "artists": Array [
                Object {
                  "name": "Bono Vox",
                },
              ],
              "images": Array [
                Object {
                  "url": "http://teste.com.br/foto.png",
                },
              ],
              "name": "U2",
            }
          }
        />
      </div>,
      "className": "albums",
    },
    "ref": null,
    "rendered": Object {
      "instance": null,
      "key": undefined,
      "nodeType": "host",
      "props": Object {
        "children": Array [
          <LoadableAlbumsListItem
            album={
              Object {
                "artists": Array [
                  Object {
                    "name": "Bono Vox",
                  },
                ],
                "images": Array [
                  Object {
                    "url": "http://teste.com.br/foto.png",
                  },
                ],
                "name": "U2",
              }
            }
          />,
          <LoadableAlbumsListItem
            album={
              Object {
                "artists": Array [
                  Object {
                    "name": "Bono Vox",
                  },
                ],
                "images": Array [
                  Object {
                    "url": "http://teste.com.br/foto.png",
                  },
                ],
                "name": "U2",
              }
            }
          />,
          <LoadableAlbumsListItem
            album={
              Object {
                "artists": Array [
                  Object {
                    "name": "Bono Vox",
                  },
                ],
                "images": Array [
                  Object {
                    "url": "http://teste.com.br/foto.png",
                  },
                ],
                "name": "U2",
              }
            }
          />,
        ],
        "className": "albumList",
      },
      "ref": null,
      "rendered": Array [
        Object {
          "instance": null,
          "key": "0",
          "nodeType": "class",
          "props": Object {
            "album": Object {
              "artists": Array [
                Object {
                  "name": "Bono Vox",
                },
              ],
              "images": Array [
                Object {
                  "url": "http://teste.com.br/foto.png",
                },
              ],
              "name": "U2",
            },
          },
          "ref": null,
          "rendered": null,
          "type": [Function],
        },
        Object {
          "instance": null,
          "key": "1",
          "nodeType": "class",
          "props": Object {
            "album": Object {
              "artists": Array [
                Object {
                  "name": "Bono Vox",
                },
              ],
              "images": Array [
                Object {
                  "url": "http://teste.com.br/foto.png",
                },
              ],
              "name": "U2",
            },
          },
          "ref": null,
          "rendered": null,
          "type": [Function],
        },
        Object {
          "instance": null,
          "key": "2",
          "nodeType": "class",
          "props": Object {
            "album": Object {
              "artists": Array [
                Object {
                  "name": "Bono Vox",
                },
              ],
              "images": Array [
                Object {
                  "url": "http://teste.com.br/foto.png",
                },
              ],
              "name": "U2",
            },
          },
          "ref": null,
          "rendered": null,
          "type": [Function],
        },
      ],
      "type": "div",
    },
    "type": "ul",
  },
  Symbol(enzyme.__nodes__): Array [
    Object {
      "instance": null,
      "key": undefined,
      "nodeType": "host",
      "props": Object {
        "children": <div
          className="albumList"
        >
          <LoadableAlbumsListItem
            album={
              Object {
                "artists": Array [
                  Object {
                    "name": "Bono Vox",
                  },
                ],
                "images": Array [
                  Object {
                    "url": "http://teste.com.br/foto.png",
                  },
                ],
                "name": "U2",
              }
            }
          />
          <LoadableAlbumsListItem
            album={
              Object {
                "artists": Array [
                  Object {
                    "name": "Bono Vox",
                  },
                ],
                "images": Array [
                  Object {
                    "url": "http://teste.com.br/foto.png",
                  },
                ],
                "name": "U2",
              }
            }
          />
          <LoadableAlbumsListItem
            album={
              Object {
                "artists": Array [
                  Object {
                    "name": "Bono Vox",
                  },
                ],
                "images": Array [
                  Object {
                    "url": "http://teste.com.br/foto.png",
                  },
                ],
                "name": "U2",
              }
            }
          />
        </div>,
        "className": "albums",
      },
      "ref": null,
      "rendered": Object {
        "instance": null,
        "key": undefined,
        "nodeType": "host",
        "props": Object {
          "children": Array [
            <LoadableAlbumsListItem
              album={
                Object {
                  "artists": Array [
                    Object {
                      "name": "Bono Vox",
                    },
                  ],
                  "images": Array [
                    Object {
                      "url": "http://teste.com.br/foto.png",
                    },
                  ],
                  "name": "U2",
                }
              }
            />,
            <LoadableAlbumsListItem
              album={
                Object {
                  "artists": Array [
                    Object {
                      "name": "Bono Vox",
                    },
                  ],
                  "images": Array [
                    Object {
                      "url": "http://teste.com.br/foto.png",
                    },
                  ],
                  "name": "U2",
                }
              }
            />,
            <LoadableAlbumsListItem
              album={
                Object {
                  "artists": Array [
                    Object {
                      "name": "Bono Vox",
                    },
                  ],
                  "images": Array [
                    Object {
                      "url": "http://teste.com.br/foto.png",
                    },
                  ],
                  "name": "U2",
                }
              }
            />,
          ],
          "className": "albumList",
        },
        "ref": null,
        "rendered": Array [
          Object {
            "instance": null,
            "key": "0",
            "nodeType": "class",
            "props": Object {
              "album": Object {
                "artists": Array [
                  Object {
                    "name": "Bono Vox",
                  },
                ],
                "images": Array [
                  Object {
                    "url": "http://teste.com.br/foto.png",
                  },
                ],
                "name": "U2",
              },
            },
            "ref": null,
            "rendered": null,
            "type": [Function],
          },
          Object {
            "instance": null,
            "key": "1",
            "nodeType": "class",
            "props": Object {
              "album": Object {
                "artists": Array [
                  Object {
                    "name": "Bono Vox",
                  },
                ],
                "images": Array [
                  Object {
                    "url": "http://teste.com.br/foto.png",
                  },
                ],
                "name": "U2",
              },
            },
            "ref": null,
            "rendered": null,
            "type": [Function],
          },
          Object {
            "instance": null,
            "key": "2",
            "nodeType": "class",
            "props": Object {
              "album": Object {
                "artists": Array [
                  Object {
                    "name": "Bono Vox",
                  },
                ],
                "images": Array [
                  Object {
                    "url": "http://teste.com.br/foto.png",
                  },
                ],
                "name": "U2",
              },
            },
            "ref": null,
            "rendered": null,
            "type": [Function],
          },
        ],
        "type": "div",
      },
      "type": "ul",
    },
  ],
  Symbol(enzyme.__options__): Object {
    "adapter": ReactSixteenAdapter {
      "options": Object {
        "enableComponentDidUpdateOnSetState": true,
        "lifecycles": Object {
          "componentDidUpdate": Object {
            "onSetState": true,
          },
          "getDerivedStateFromProps": true,
          "getSnapshotBeforeUpdate": true,
          "setState": Object {
            "skipsComponentDidUpdateOnNullish": true,
          },
        },
      },
    },
  },
}
`;
