// Jest Snapshot v1, https://goo.gl/fbAQLP

exports[`CoreLayout renders correctly 1`] = `
ShallowWrapper {
  Symbol(enzyme.__root__): [Circular],
  Symbol(enzyme.__unrendered__): <CoreLayout
    history={
      Object {
        "push": [MockFunction],
      }
    }
    location={Object {}}
  >
    <div>
      Teste
    </div>
  </CoreLayout>,
  Symbol(enzyme.__renderer__): Object {
    "batchedUpdates": [Function],
    "getNode": [Function],
    "render": [Function],
    "simulateError": [Function],
    "simulateEvent": [Function],
    "unmount": [Function],
  },
  Symbol(enzyme.__node__): Object {
    "instance": null,
    "key": undefined,
    "nodeType": "host",
    "props": Object {
      "children": Array [
        <LoadableHeader />,
        <main
          className="container main"
        >
          <form
            action="/albums"
            className="searchForm"
            onSubmit={[Function]}
          >
            <div>
              <label
                className="searchLabel"
              >
                Busque por artistas, álbuns ou músicas
              </label>
              <div
                className="inputContainer"
              >
                <input
                  className="searchInput"
                  id="searchQuery"
                  name="searchQuery"
                  onChange={[Function]}
                  placeholder="Comece a escrever..."
                  type="text"
                  value=""
                />
              </div>
            </div>
          </form>
          <Route
            component={[Function]}
            exact={true}
            path="/"
          />
          <Route
            exact={true}
            path="/albums/:query"
            render={[Function]}
          />
        </main>,
      ],
      "className": "root",
    },
    "ref": null,
    "rendered": Array [
      Object {
        "instance": null,
        "key": undefined,
        "nodeType": "class",
        "props": Object {},
        "ref": null,
        "rendered": null,
        "type": [Function],
      },
      Object {
        "instance": null,
        "key": undefined,
        "nodeType": "host",
        "props": Object {
          "children": Array [
            <form
              action="/albums"
              className="searchForm"
              onSubmit={[Function]}
            >
              <div>
                <label
                  className="searchLabel"
                >
                  Busque por artistas, álbuns ou músicas
                </label>
                <div
                  className="inputContainer"
                >
                  <input
                    className="searchInput"
                    id="searchQuery"
                    name="searchQuery"
                    onChange={[Function]}
                    placeholder="Comece a escrever..."
                    type="text"
                    value=""
                  />
                </div>
              </div>
            </form>,
            <Route
              component={[Function]}
              exact={true}
              path="/"
            />,
            <Route
              exact={true}
              path="/albums/:query"
              render={[Function]}
            />,
          ],
          "className": "container main",
        },
        "ref": null,
        "rendered": Array [
          Object {
            "instance": null,
            "key": undefined,
            "nodeType": "host",
            "props": Object {
              "action": "/albums",
              "children": <div>
                <label
                  className="searchLabel"
                >
                  Busque por artistas, álbuns ou músicas
                </label>
                <div
                  className="inputContainer"
                >
                  <input
                    className="searchInput"
                    id="searchQuery"
                    name="searchQuery"
                    onChange={[Function]}
                    placeholder="Comece a escrever..."
                    type="text"
                    value=""
                  />
                </div>
              </div>,
              "className": "searchForm",
              "onSubmit": [Function],
            },
            "ref": null,
            "rendered": Object {
              "instance": null,
              "key": undefined,
              "nodeType": "host",
              "props": Object {
                "children": Array [
                  <label
                    className="searchLabel"
                  >
                    Busque por artistas, álbuns ou músicas
                  </label>,
                  <div
                    className="inputContainer"
                  >
                    <input
                      className="searchInput"
                      id="searchQuery"
                      name="searchQuery"
                      onChange={[Function]}
                      placeholder="Comece a escrever..."
                      type="text"
                      value=""
                    />
                  </div>,
                ],
              },
              "ref": null,
              "rendered": Array [
                Object {
                  "instance": null,
                  "key": undefined,
                  "nodeType": "host",
                  "props": Object {
                    "children": "Busque por artistas, álbuns ou músicas",
                    "className": "searchLabel",
                  },
                  "ref": null,
                  "rendered": "Busque por artistas, álbuns ou músicas",
                  "type": "label",
                },
                Object {
                  "instance": null,
                  "key": undefined,
                  "nodeType": "host",
                  "props": Object {
                    "children": <input
                      className="searchInput"
                      id="searchQuery"
                      name="searchQuery"
                      onChange={[Function]}
                      placeholder="Comece a escrever..."
                      type="text"
                      value=""
                    />,
                    "className": "inputContainer",
                  },
                  "ref": null,
                  "rendered": Object {
                    "instance": null,
                    "key": undefined,
                    "nodeType": "host",
                    "props": Object {
                      "className": "searchInput",
                      "id": "searchQuery",
                      "name": "searchQuery",
                      "onChange": [Function],
                      "placeholder": "Comece a escrever...",
                      "type": "text",
                      "value": "",
                    },
                    "ref": null,
                    "rendered": null,
                    "type": "input",
                  },
                  "type": "div",
                },
              ],
              "type": "div",
            },
            "type": "form",
          },
          Object {
            "instance": null,
            "key": undefined,
            "nodeType": "class",
            "props": Object {
              "component": [Function],
              "exact": true,
              "path": "/",
            },
            "ref": null,
            "rendered": null,
            "type": [Function],
          },
          Object {
            "instance": null,
            "key": undefined,
            "nodeType": "class",
            "props": Object {
              "exact": true,
              "path": "/albums/:query",
              "render": [Function],
            },
            "ref": null,
            "rendered": null,
            "type": [Function],
          },
        ],
        "type": "main",
      },
    ],
    "type": "div",
  },
  Symbol(enzyme.__nodes__): Array [
    Object {
      "instance": null,
      "key": undefined,
      "nodeType": "host",
      "props": Object {
        "children": Array [
          <LoadableHeader />,
          <main
            className="container main"
          >
            <form
              action="/albums"
              className="searchForm"
              onSubmit={[Function]}
            >
              <div>
                <label
                  className="searchLabel"
                >
                  Busque por artistas, álbuns ou músicas
                </label>
                <div
                  className="inputContainer"
                >
                  <input
                    className="searchInput"
                    id="searchQuery"
                    name="searchQuery"
                    onChange={[Function]}
                    placeholder="Comece a escrever..."
                    type="text"
                    value=""
                  />
                </div>
              </div>
            </form>
            <Route
              component={[Function]}
              exact={true}
              path="/"
            />
            <Route
              exact={true}
              path="/albums/:query"
              render={[Function]}
            />
          </main>,
        ],
        "className": "root",
      },
      "ref": null,
      "rendered": Array [
        Object {
          "instance": null,
          "key": undefined,
          "nodeType": "class",
          "props": Object {},
          "ref": null,
          "rendered": null,
          "type": [Function],
        },
        Object {
          "instance": null,
          "key": undefined,
          "nodeType": "host",
          "props": Object {
            "children": Array [
              <form
                action="/albums"
                className="searchForm"
                onSubmit={[Function]}
              >
                <div>
                  <label
                    className="searchLabel"
                  >
                    Busque por artistas, álbuns ou músicas
                  </label>
                  <div
                    className="inputContainer"
                  >
                    <input
                      className="searchInput"
                      id="searchQuery"
                      name="searchQuery"
                      onChange={[Function]}
                      placeholder="Comece a escrever..."
                      type="text"
                      value=""
                    />
                  </div>
                </div>
              </form>,
              <Route
                component={[Function]}
                exact={true}
                path="/"
              />,
              <Route
                exact={true}
                path="/albums/:query"
                render={[Function]}
              />,
            ],
            "className": "container main",
          },
          "ref": null,
          "rendered": Array [
            Object {
              "instance": null,
              "key": undefined,
              "nodeType": "host",
              "props": Object {
                "action": "/albums",
                "children": <div>
                  <label
                    className="searchLabel"
                  >
                    Busque por artistas, álbuns ou músicas
                  </label>
                  <div
                    className="inputContainer"
                  >
                    <input
                      className="searchInput"
                      id="searchQuery"
                      name="searchQuery"
                      onChange={[Function]}
                      placeholder="Comece a escrever..."
                      type="text"
                      value=""
                    />
                  </div>
                </div>,
                "className": "searchForm",
                "onSubmit": [Function],
              },
              "ref": null,
              "rendered": Object {
                "instance": null,
                "key": undefined,
                "nodeType": "host",
                "props": Object {
                  "children": Array [
                    <label
                      className="searchLabel"
                    >
                      Busque por artistas, álbuns ou músicas
                    </label>,
                    <div
                      className="inputContainer"
                    >
                      <input
                        className="searchInput"
                        id="searchQuery"
                        name="searchQuery"
                        onChange={[Function]}
                        placeholder="Comece a escrever..."
                        type="text"
                        value=""
                      />
                    </div>,
                  ],
                },
                "ref": null,
                "rendered": Array [
                  Object {
                    "instance": null,
                    "key": undefined,
                    "nodeType": "host",
                    "props": Object {
                      "children": "Busque por artistas, álbuns ou músicas",
                      "className": "searchLabel",
                    },
                    "ref": null,
                    "rendered": "Busque por artistas, álbuns ou músicas",
                    "type": "label",
                  },
                  Object {
                    "instance": null,
                    "key": undefined,
                    "nodeType": "host",
                    "props": Object {
                      "children": <input
                        className="searchInput"
                        id="searchQuery"
                        name="searchQuery"
                        onChange={[Function]}
                        placeholder="Comece a escrever..."
                        type="text"
                        value=""
                      />,
                      "className": "inputContainer",
                    },
                    "ref": null,
                    "rendered": Object {
                      "instance": null,
                      "key": undefined,
                      "nodeType": "host",
                      "props": Object {
                        "className": "searchInput",
                        "id": "searchQuery",
                        "name": "searchQuery",
                        "onChange": [Function],
                        "placeholder": "Comece a escrever...",
                        "type": "text",
                        "value": "",
                      },
                      "ref": null,
                      "rendered": null,
                      "type": "input",
                    },
                    "type": "div",
                  },
                ],
                "type": "div",
              },
              "type": "form",
            },
            Object {
              "instance": null,
              "key": undefined,
              "nodeType": "class",
              "props": Object {
                "component": [Function],
                "exact": true,
                "path": "/",
              },
              "ref": null,
              "rendered": null,
              "type": [Function],
            },
            Object {
              "instance": null,
              "key": undefined,
              "nodeType": "class",
              "props": Object {
                "exact": true,
                "path": "/albums/:query",
                "render": [Function],
              },
              "ref": null,
              "rendered": null,
              "type": [Function],
            },
          ],
          "type": "main",
        },
      ],
      "type": "div",
    },
  ],
  Symbol(enzyme.__options__): Object {
    "adapter": ReactSixteenAdapter {
      "options": Object {
        "enableComponentDidUpdateOnSetState": true,
        "lifecycles": Object {
          "componentDidUpdate": Object {
            "onSetState": true,
          },
          "getDerivedStateFromProps": true,
          "getSnapshotBeforeUpdate": true,
          "setState": Object {
            "skipsComponentDidUpdateOnNullish": true,
          },
        },
      },
    },
  },
}
`;
